{
    "name": "react-typescript",
    "version": "1.0.0",
    "main": "index.js",
    "license": "MIT",
    "scripts": {
        "start": "webpack-cli serve --mode=development --env development --open --hot",
        "build": "webpack --mode=production --env production --progress",
        "lint": "eslint \"src/**/*.{ts,tsx}\" --quiet --fix",
        "test": "npx jest"
    },
    "devDependencies": {
        "@types/react": "^17.0.3",
        "@types/react-dom": "^17.0.2",
        "@types/webpack": "^4.41.26",
        "@types/webpack-dev-server": "^3.11.2",
        "@typescript-eslint/eslint-plugin": "^4.17.0",
        "@typescript-eslint/parser": "^4.17.0",
        "css-loader": "^5.1.3",
        "eslint": "^7.22.0",
        "eslint-config-prettier": "^8.1.0",
        "eslint-plugin-import": "^2.22.1",
        "eslint-plugin-prettier": "^3.3.1",
        "eslint-plugin-react": "^7.22.0",
        "eslint-plugin-react-hooks": "^4.2.0",
        "fork-ts-checker-webpack-plugin": "^6.1.1",
        "html-webpack-plugin": "^5.3.1",
        "identity-obj-proxy": "^3.0.0",
        "jest": "^27.2.5",
        "node-sass": "^5.0.0",
        "prettier": "^2.2.1",
        "sass": "^1.42.1",
        "sass-loader": "^12.1.0",
        "style-loader": "^2.0.0",
        "ts-jest": "^27.0.5",
        "ts-loader": "^8.0.18",
        "ts-node": "^9.1.1",
        "tsconfig-paths-webpack-plugin": "^3.5.0",
        "typescript": "^4.2.3",
        "webpack": "^5.56.1",
        "webpack-cli": "^4.5.0",
        "webpack-dev-server": "^3.11.2"
    },
    "dependencies": {
        "react": "^17.0.1",
        "react-dom": "^17.0.1"
    },
    "jest": {
        "moduleNameMapper": {
            "\\.(jpg|jpeg|png|gif|eot|otf|webp|svg|ttf|woff|woff2|mp4|webm|wav|mp3|m4a|aac|oga)$": "<rootDir>/__mocks__/fileMock.js",
            "\\.(css|less)$": "identity-obj-proxy"
        }
    }
}
